G75*
G70*
%OFA0B0*%
%FSLAX24Y24*%
%IPPOS*%
%LPD*%
%AMOC8*
5,1,8,0,0,1.08239X$1,22.5*
%
%ADD10C,0.0820*%
%ADD11C,0.0730*%
%ADD12R,0.0730X0.0730*%
%ADD13C,0.1740*%
%ADD14C,0.1700*%
%ADD15C,0.0860*%
%ADD16C,0.0860*%
%ADD17C,0.0820*%
%ADD18C,0.0905*%
%ADD19C,0.1380*%
%ADD20C,0.0456*%
D10*
X018706Y004157D02*
X019446Y004157D01*
X019446Y005157D02*
X018706Y005157D01*
X018706Y006157D02*
X019446Y006157D01*
X019446Y007157D02*
X018706Y007157D01*
D11*
X015076Y013657D03*
X013076Y013657D03*
X018076Y015157D03*
D12*
X019076Y015157D03*
D13*
X018576Y020443D03*
D14*
X017096Y021694D03*
X018566Y023325D03*
D15*
X012576Y009657D03*
X008576Y009657D03*
D16*
X006926Y010567D02*
X006926Y011347D01*
X004576Y010547D02*
X004576Y009767D01*
X002226Y010567D02*
X002226Y011347D01*
X002226Y015367D02*
X002226Y016147D01*
X006926Y016147D02*
X006926Y015367D01*
D17*
X002176Y008157D03*
X002076Y007157D03*
X002176Y006157D03*
X002076Y005157D03*
X002176Y004157D03*
X002076Y003157D03*
D18*
X004842Y023744D02*
X004842Y024569D01*
X006842Y024569D02*
X006842Y023744D01*
X008811Y023744D02*
X008811Y024569D01*
D19*
X002076Y001407D03*
X019076Y001407D03*
X019076Y017907D03*
X002076Y024407D03*
D20*
X003576Y021407D03*
X003576Y020657D03*
X005576Y018657D03*
X003576Y018157D03*
X003076Y015157D03*
X005576Y015157D03*
X005576Y014407D03*
X007326Y012407D03*
X007826Y014407D03*
X009826Y012907D03*
X009726Y011557D03*
X010326Y009657D03*
X011326Y007907D03*
X012576Y007907D03*
X013826Y006157D03*
X014826Y005157D03*
X015326Y007907D03*
X014826Y009157D03*
X015326Y012157D03*
X016326Y012407D03*
X016826Y013657D03*
X016576Y014657D03*
X015576Y016157D03*
X016576Y017657D03*
X015826Y019157D03*
X014326Y017657D03*
X013826Y019157D03*
X011826Y018157D03*
X011076Y018657D03*
X011326Y019407D03*
X011576Y021407D03*
X012326Y021407D03*
X013326Y022157D03*
X009326Y018157D03*
X008326Y018657D03*
X007826Y019407D03*
X010576Y015407D03*
X012326Y016157D03*
X011326Y013157D03*
X011826Y012907D03*
X008076Y008907D03*
X007576Y007907D03*
X006826Y007157D03*
X005326Y008157D03*
X003076Y005157D03*
X003576Y004157D03*
X002326Y008907D03*
X017576Y008657D03*
X019576Y008657D03*
X019076Y011907D03*
X019076Y013657D03*
X017576Y004157D03*
M02*
